[
  {
    "year": "2017",
    "data": [
      { "team": "Sunrisers Hyderabad", "matchWonCount": 8 },
      { "team": "Mumbai Indians", "matchWonCount": 12 },
      { "team": "Gujarat Lions", "matchWonCount": 4 },
      { "team": "Rising Pune Supergiant", "matchWonCount": 10 },
      { "team": "Royal Challengers Bangalore", "matchWonCount": 3 },
      { "team": "Kolkata Knight Riders", "matchWonCount": 9 },
      { "team": "Delhi Daredevils", "matchWonCount": 6 },
      { "team": "Kings XI Punjab", "matchWonCount": 7 },
      { "team": "Chennai Super Kings", "matchWonCount": 0 },
      { "team": "Rajasthan Royals", "matchWonCount": 0 },
      { "team": "Deccan Chargers", "matchWonCount": 0 },
      { "team": "Kochi Tuskers Kerala", "matchWonCount": 0 },
      { "team": "Pune Warriors", "matchWonCount": 0 },
      { "team": "Rising Pune Supergiants", "matchWonCount": 0 },
      { "team": "Delhi Capitals", "matchWonCount": 0 }
    ]
  },
  {
    "year": "2008",
    "data": [
      { "team": "Sunrisers Hyderabad", "matchWonCount": 0 },
      { "team": "Mumbai Indians", "matchWonCount": 7 },
      { "team": "Gujarat Lions", "matchWonCount": 0 },
      { "team": "Rising Pune Supergiant", "matchWonCount": 0 },
      { "team": "Royal Challengers Bangalore", "matchWonCount": 4 },
      { "team": "Kolkata Knight Riders", "matchWonCount": 6 },
      { "team": "Delhi Daredevils", "matchWonCount": 7 },
      { "team": "Kings XI Punjab", "matchWonCount": 10 },
      { "team": "Chennai Super Kings", "matchWonCount": 9 },
      { "team": "Rajasthan Royals", "matchWonCount": 13 },
      { "team": "Deccan Chargers", "matchWonCount": 2 },
      { "team": "Kochi Tuskers Kerala", "matchWonCount": 0 },
      { "team": "Pune Warriors", "matchWonCount": 0 },
      { "team": "Rising Pune Supergiants", "matchWonCount": 0 },
      { "team": "Delhi Capitals", "matchWonCount": 0 }
    ]
  },
  {
    "year": "2009",
    "data": [
      { "team": "Sunrisers Hyderabad", "matchWonCount": 0 },
      { "team": "Mumbai Indians", "matchWonCount": 5 },
      { "team": "Gujarat Lions", "matchWonCount": 0 },
      { "team": "Rising Pune Supergiant", "matchWonCount": 0 },
      { "team": "Royal Challengers Bangalore", "matchWonCount": 9 },
      { "team": "Kolkata Knight Riders", "matchWonCount": 3 },
      { "team": "Delhi Daredevils", "matchWonCount": 10 },
      { "team": "Kings XI Punjab", "matchWonCount": 7 },
      { "team": "Chennai Super Kings", "matchWonCount": 8 },
      { "team": "Rajasthan Royals", "matchWonCount": 6 },
      { "team": "Deccan Chargers", "matchWonCount": 9 },
      { "team": "Kochi Tuskers Kerala", "matchWonCount": 0 },
      { "team": "Pune Warriors", "matchWonCount": 0 },
      { "team": "Rising Pune Supergiants", "matchWonCount": 0 },
      { "team": "Delhi Capitals", "matchWonCount": 0 }
    ]
  },
  {
    "year": "2010",
    "data": [
      { "team": "Sunrisers Hyderabad", "matchWonCount": 0 },
      { "team": "Mumbai Indians", "matchWonCount": 11 },
      { "team": "Gujarat Lions", "matchWonCount": 0 },
      { "team": "Rising Pune Supergiant", "matchWonCount": 0 },
      { "team": "Royal Challengers Bangalore", "matchWonCount": 8 },
      { "team": "Kolkata Knight Riders", "matchWonCount": 7 },
      { "team": "Delhi Daredevils", "matchWonCount": 7 },
      { "team": "Kings XI Punjab", "matchWonCount": 4 },
      { "team": "Chennai Super Kings", "matchWonCount": 9 },
      { "team": "Rajasthan Royals", "matchWonCount": 6 },
      { "team": "Deccan Chargers", "matchWonCount": 8 },
      { "team": "Kochi Tuskers Kerala", "matchWonCount": 0 },
      { "team": "Pune Warriors", "matchWonCount": 0 },
      { "team": "Rising Pune Supergiants", "matchWonCount": 0 },
      { "team": "Delhi Capitals", "matchWonCount": 0 }
    ]
  },
  {
    "year": "2011",
    "data": [
      { "team": "Sunrisers Hyderabad", "matchWonCount": 0 },
      { "team": "Mumbai Indians", "matchWonCount": 10 },
      { "team": "Gujarat Lions", "matchWonCount": 0 },
      { "team": "Rising Pune Supergiant", "matchWonCount": 0 },
      { "team": "Royal Challengers Bangalore", "matchWonCount": 10 },
      { "team": "Kolkata Knight Riders", "matchWonCount": 8 },
      { "team": "Delhi Daredevils", "matchWonCount": 4 },
      { "team": "Kings XI Punjab", "matchWonCount": 7 },
      { "team": "Chennai Super Kings", "matchWonCount": 11 },
      { "team": "Rajasthan Royals", "matchWonCount": 6 },
      { "team": "Deccan Chargers", "matchWonCount": 6 },
      { "team": "Kochi Tuskers Kerala", "matchWonCount": 6 },
      { "team": "Pune Warriors", "matchWonCount": 4 },
      { "team": "Rising Pune Supergiants", "matchWonCount": 0 },
      { "team": "Delhi Capitals", "matchWonCount": 0 }
    ]
  },
  {
    "year": "2012",
    "data": [
      { "team": "Sunrisers Hyderabad", "matchWonCount": 0 },
      { "team": "Mumbai Indians", "matchWonCount": 10 },
      { "team": "Gujarat Lions", "matchWonCount": 0 },
      { "team": "Rising Pune Supergiant", "matchWonCount": 0 },
      { "team": "Royal Challengers Bangalore", "matchWonCount": 8 },
      { "team": "Kolkata Knight Riders", "matchWonCount": 12 },
      { "team": "Delhi Daredevils", "matchWonCount": 11 },
      { "team": "Kings XI Punjab", "matchWonCount": 8 },
      { "team": "Chennai Super Kings", "matchWonCount": 10 },
      { "team": "Rajasthan Royals", "matchWonCount": 7 },
      { "team": "Deccan Chargers", "matchWonCount": 4 },
      { "team": "Kochi Tuskers Kerala", "matchWonCount": 0 },
      { "team": "Pune Warriors", "matchWonCount": 4 },
      { "team": "Rising Pune Supergiants", "matchWonCount": 0 },
      { "team": "Delhi Capitals", "matchWonCount": 0 }
    ]
  },
  {
    "year": "2013",
    "data": [
      { "team": "Sunrisers Hyderabad", "matchWonCount": 10 },
      { "team": "Mumbai Indians", "matchWonCount": 13 },
      { "team": "Gujarat Lions", "matchWonCount": 0 },
      { "team": "Rising Pune Supergiant", "matchWonCount": 0 },
      { "team": "Royal Challengers Bangalore", "matchWonCount": 9 },
      { "team": "Kolkata Knight Riders", "matchWonCount": 6 },
      { "team": "Delhi Daredevils", "matchWonCount": 3 },
      { "team": "Kings XI Punjab", "matchWonCount": 8 },
      { "team": "Chennai Super Kings", "matchWonCount": 12 },
      { "team": "Rajasthan Royals", "matchWonCount": 11 },
      { "team": "Deccan Chargers", "matchWonCount": 0 },
      { "team": "Kochi Tuskers Kerala", "matchWonCount": 0 },
      { "team": "Pune Warriors", "matchWonCount": 4 },
      { "team": "Rising Pune Supergiants", "matchWonCount": 0 },
      { "team": "Delhi Capitals", "matchWonCount": 0 }
    ]
  },
  {
    "year": "2014",
    "data": [
      { "team": "Sunrisers Hyderabad", "matchWonCount": 6 },
      { "team": "Mumbai Indians", "matchWonCount": 7 },
      { "team": "Gujarat Lions", "matchWonCount": 0 },
      { "team": "Rising Pune Supergiant", "matchWonCount": 0 },
      { "team": "Royal Challengers Bangalore", "matchWonCount": 5 },
      { "team": "Kolkata Knight Riders", "matchWonCount": 11 },
      { "team": "Delhi Daredevils", "matchWonCount": 2 },
      { "team": "Kings XI Punjab", "matchWonCount": 12 },
      { "team": "Chennai Super Kings", "matchWonCount": 10 },
      { "team": "Rajasthan Royals", "matchWonCount": 7 },
      { "team": "Deccan Chargers", "matchWonCount": 0 },
      { "team": "Kochi Tuskers Kerala", "matchWonCount": 0 },
      { "team": "Pune Warriors", "matchWonCount": 0 },
      { "team": "Rising Pune Supergiants", "matchWonCount": 0 },
      { "team": "Delhi Capitals", "matchWonCount": 0 }
    ]
  },
  {
    "year": "2015",
    "data": [
      { "team": "Sunrisers Hyderabad", "matchWonCount": 7 },
      { "team": "Mumbai Indians", "matchWonCount": 10 },
      { "team": "Gujarat Lions", "matchWonCount": 0 },
      { "team": "Rising Pune Supergiant", "matchWonCount": 0 },
      { "team": "Royal Challengers Bangalore", "matchWonCount": 8 },
      { "team": "Kolkata Knight Riders", "matchWonCount": 7 },
      { "team": "Delhi Daredevils", "matchWonCount": 5 },
      { "team": "Kings XI Punjab", "matchWonCount": 3 },
      { "team": "Chennai Super Kings", "matchWonCount": 10 },
      { "team": "Rajasthan Royals", "matchWonCount": 7 },
      { "team": "Deccan Chargers", "matchWonCount": 0 },
      { "team": "Kochi Tuskers Kerala", "matchWonCount": 0 },
      { "team": "Pune Warriors", "matchWonCount": 0 },
      { "team": "Rising Pune Supergiants", "matchWonCount": 0 },
      { "team": "Delhi Capitals", "matchWonCount": 0 }
    ]
  },
  {
    "year": "2016",
    "data": [
      { "team": "Sunrisers Hyderabad", "matchWonCount": 11 },
      { "team": "Mumbai Indians", "matchWonCount": 7 },
      { "team": "Gujarat Lions", "matchWonCount": 9 },
      { "team": "Rising Pune Supergiant", "matchWonCount": 0 },
      { "team": "Royal Challengers Bangalore", "matchWonCount": 9 },
      { "team": "Kolkata Knight Riders", "matchWonCount": 8 },
      { "team": "Delhi Daredevils", "matchWonCount": 7 },
      { "team": "Kings XI Punjab", "matchWonCount": 4 },
      { "team": "Chennai Super Kings", "matchWonCount": 0 },
      { "team": "Rajasthan Royals", "matchWonCount": 0 },
      { "team": "Deccan Chargers", "matchWonCount": 0 },
      { "team": "Kochi Tuskers Kerala", "matchWonCount": 0 },
      { "team": "Pune Warriors", "matchWonCount": 0 },
      { "team": "Rising Pune Supergiants", "matchWonCount": 5 },
      { "team": "Delhi Capitals", "matchWonCount": 0 }
    ]
  },
  {
    "year": "2018",
    "data": [
      { "team": "Sunrisers Hyderabad", "matchWonCount": 10 },
      { "team": "Mumbai Indians", "matchWonCount": 6 },
      { "team": "Gujarat Lions", "matchWonCount": 0 },
      { "team": "Rising Pune Supergiant", "matchWonCount": 0 },
      { "team": "Royal Challengers Bangalore", "matchWonCount": 6 },
      { "team": "Kolkata Knight Riders", "matchWonCount": 9 },
      { "team": "Delhi Daredevils", "matchWonCount": 5 },
      { "team": "Kings XI Punjab", "matchWonCount": 6 },
      { "team": "Chennai Super Kings", "matchWonCount": 11 },
      { "team": "Rajasthan Royals", "matchWonCount": 7 },
      { "team": "Deccan Chargers", "matchWonCount": 0 },
      { "team": "Kochi Tuskers Kerala", "matchWonCount": 0 },
      { "team": "Pune Warriors", "matchWonCount": 0 },
      { "team": "Rising Pune Supergiants", "matchWonCount": 0 },
      { "team": "Delhi Capitals", "matchWonCount": 0 }
    ]
  },
  {
    "year": "2019",
    "data": [
      { "team": "Sunrisers Hyderabad", "matchWonCount": 6 },
      { "team": "Mumbai Indians", "matchWonCount": 11 },
      { "team": "Gujarat Lions", "matchWonCount": 0 },
      { "team": "Rising Pune Supergiant", "matchWonCount": 0 },
      { "team": "Royal Challengers Bangalore", "matchWonCount": 5 },
      { "team": "Kolkata Knight Riders", "matchWonCount": 6 },
      { "team": "Delhi Daredevils", "matchWonCount": 0 },
      { "team": "Kings XI Punjab", "matchWonCount": 6 },
      { "team": "Chennai Super Kings", "matchWonCount": 10 },
      { "team": "Rajasthan Royals", "matchWonCount": 5 },
      { "team": "Deccan Chargers", "matchWonCount": 0 },
      { "team": "Kochi Tuskers Kerala", "matchWonCount": 0 },
      { "team": "Pune Warriors", "matchWonCount": 0 },
      { "team": "Rising Pune Supergiants", "matchWonCount": 0 },
      { "team": "Delhi Capitals", "matchWonCount": 10 }
    ]
  }
]
