[
  { "teamName": "Sunrisers Hyderabad", "extraRuns": 107 },
  { "teamName": "Mumbai Indians", "extraRuns": 102 },
  { "teamName": "Gujarat Lions", "extraRuns": 98 },
  { "teamName": "Rising Pune Supergiant", "extraRuns": 0 },
  { "teamName": "Royal Challengers Bangalore", "extraRuns": 156 },
  { "teamName": "Kolkata Knight Riders", "extraRuns": 122 },
  { "teamName": "Delhi Daredevils", "extraRuns": 106 },
  { "teamName": "Kings XI Punjab", "extraRuns": 100 },
  { "teamName": "Chennai Super Kings", "extraRuns": 0 },
  { "teamName": "Rajasthan Royals", "extraRuns": 0 },
  { "teamName": "Deccan Chargers", "extraRuns": 0 },
  { "teamName": "Kochi Tuskers Kerala", "extraRuns": 0 },
  { "teamName": "Pune Warriors", "extraRuns": 0 },
  { "teamName": "Rising Pune Supergiants", "extraRuns": 108 },
  { "teamName": "Delhi Capitals", "extraRuns": 0 }
]
